<define-tag pagetitle>DLA-1040-1 resiprocate</define-tag>
<define-tag report_date>2017-7-26</define-tag>
<define-tag secrefs>CVE-2017-11521</define-tag>
<define-tag packages>resiprocate</define-tag>
<define-tag isvulnerable>yes</define-tag>
<define-tag fixed>yes</define-tag>
<define-tag fixed-section>no</define-tag>

#use wml::debian::security

