<define-tag pagetitle>DLA-876-1 eject</define-tag>
<define-tag report_date>2017-3-28</define-tag>
<define-tag secrefs>CVE-2017-6964 Bug##858872</define-tag>
<define-tag packages>eject</define-tag>
<define-tag isvulnerable>yes</define-tag>
<define-tag fixed>yes</define-tag>
<define-tag fixed-section>no</define-tag>

#use wml::debian::security

