<define-tag pagetitle>DLA-1338-1 beep</define-tag>
<define-tag report_date>2018-4-3</define-tag>
<define-tag secrefs>CVE-2018-0492 Bug##894667</define-tag>
<define-tag packages>beep</define-tag>
<define-tag isvulnerable>yes</define-tag>
<define-tag fixed>yes</define-tag>
<define-tag fixed-section>no</define-tag>

#use wml::debian::security

