<define-tag pagetitle>DLA-621-1 autotrace</define-tag>
<define-tag report_date>2016-9-15</define-tag>
<define-tag secrefs>CVE-2016-7392</define-tag>
<define-tag packages>autotrace</define-tag>
<define-tag isvulnerable>yes</define-tag>
<define-tag fixed>yes</define-tag>
<define-tag fixed-section>no</define-tag>

#use wml::debian::security

