<define-tag pagetitle>DLA-743-1 firefox-esr</define-tag>
<define-tag report_date>2016-12-15</define-tag>
<define-tag secrefs>CVE-2016-9893 CVE-2016-9895 CVE-2016-9897 CVE-2016-9898 CVE-2016-9899 CVE-2016-9900 CVE-2016-9901 CVE-2016-9902 CVE-2016-9904 CVE-2016-9905</define-tag>
<define-tag packages>firefox-esr</define-tag>
<define-tag isvulnerable>yes</define-tag>
<define-tag fixed>yes</define-tag>
<define-tag fixed-section>no</define-tag>

#use wml::debian::security

