<define-tag pagetitle>DLA-494-1 eglibc</define-tag>
<define-tag report_date>2016-5-30</define-tag>
<define-tag secrefs>CVE-2016-1234 CVE-2016-3075 CVE-2016-3706</define-tag>
<define-tag packages>eglibc</define-tag>
<define-tag isvulnerable>yes</define-tag>
<define-tag fixed>yes</define-tag>
<define-tag fixed-section>no</define-tag>

#use wml::debian::security

